{
  "soy.web.panel.render.time": [
    "atlassianPlugin",
    "analyticEventVersion",
    "pluginKeyResponsible",
    "renderExceptionThrown",
    "renderTimeMilliseconds",
    "webPanel",
    "webPanelLocation"
  ]
}
